p hold 'Take in backing fluid'

s 2 hexw2 1 1 7.28 1000 4000 0
s 2 start 0 

p hold 'Take in sample'

s 2 hexw2 1 1 7.28 25 100 0
s 2 start 0

p hold 'Attach syringe to tube and press Enter when ready to proceed'
