#THE CHOSEN ONE
#TIME PLATEUS DUE TO SERIAL PORT COMMUNICATION
#350 GIVES DECENT CONTROL AT 10 MINUTES APPROX
#500 GIVES DECENT CONTROL WITH LOTS OF BUBBLES AT 10 MINUTES APPROX)

p hold 'Connect syringe to First tubing and insert luer in sample. Press Enter to withdraw sample into tubing.'

s 1 hexw2 1 1 7.28 25 100 0
s 1 start 0

p hold 'Pull in Air now'

s 1 hexw2 1 1 7.28 20 100 0
s 1 start 0

p hold 'Attach leur to Pre-PCR module and press Enter to proceed with infusion into mixing chamber.'

#Infusing to Pre-PCR mixing chamber
s 1 hexw2 1 0 7.28 115 350 0
s 1 start 0

#Mixing in Pre-PCR
p loop 3

ls 1 hexw2 1 1 7.28 30 350 0
ls 1 start 0

ls 1 hexw2 1 0 7.28 30 350 0
ls 1 start 0

p loop end

#Moving to PCR position

s 1 hexw2 1 0 7.28 130 350 0
s 1 start 0

p hold 'Perform PCR and press Enter when ready to proceed.'


#Moving to first mixing position in Post-PCR 5 chamber
s 1 hexw2 1 0 7.28 140 350 0
s 1 start 0

#Starting the Hyb Mixing

p hold 'Hyb Mixing'

p loop 6
ls 1 hexw2 1 1 7.28 25 350 0
ls 1 start 0

ls 1 hexw2 1 0 7.28 25 350 0
ls 1 start 0

p loop end

p hold 'Move to Reporter position'

s 1 hexw2 1 0 7.28 50 350 0
s 1 start 0


p hold 'Reporter Mixing'
p loop 3
ls 1 hexw2 1 0 7.28 30 350 0
ls 1 start 0

ls 1 hexw2 1 1 7.28 30 350 0
ls 1 start 0

p loop end


#Moving towards detection
s 1 hexw2 1 0 7.28 130 350 0
s 1 start 0

